<svg xmlns="http://www.w3.org/2000/svg" width="14" height="18" viewBox="0 0 14 18">
    <path fill="#717175" fill-rule="evenodd" d="M12.999 4h-12v12A2 2 0 0 0 3 18h7.999a2 2 0 0 0 2-2V4m-3.5-4h-5L3.5 1H.999A1 1 0 0 0 0 2v1h14V2a1 1 0 0 0-1.001-1H10.5L9.499 0"/>
</svg>
