<svg xmlns="http://www.w3.org/2000/svg" width="15" height="13" viewBox="0 0 15 13">
    <g fill="none" fill-rule="evenodd" stroke="#423F40" stroke-width="1.5">
        <path d="M14.25 2a.25.25 0 0 0-.25-.25H1A.25.25 0 0 0 .75 2v10c0 .138.112.25.25.25h13a.25.25 0 0 0 .25-.25V2z"/>
        <path d="M2.48 1.746c2.334 3.112 4.116 4.663 5.164 4.663s2.835-1.551 5.176-4.663H2.48z"/>
    </g>
</svg>
