<svg xmlns="http://www.w3.org/2000/svg" width="22" height="22" viewBox="0 0 22 22">
    <g fill="none" fill-rule="evenodd" transform="translate(-1 -1)">
        <path fill="#DB9C00" d="M5.4 12c0 3.696 2.904 6.6 6.6 6.6 3.696 0 6.6-2.904 6.6-6.6 0-3.696-2.904-6.6-6.6-6.6-3.696 0-6.6 2.904-6.6 6.6zM1 12c0 6.05 4.95 11 11 11s11-4.95 11-11S18.05 1 12 1 1 5.95 1 12zm2.2 0c0-4.84 3.96-8.8 8.8-8.8 4.84 0 8.8 3.96 8.8 8.8 0 4.84-3.96 8.8-8.8 8.8-4.84 0-8.8-3.96-8.8-8.8z"/>
        <circle cx="8.4" cy="12" r="1.2" fill="#FFF"/>
        <circle cx="12" cy="12" r="1.2" fill="#FFF"/>
        <circle cx="15.6" cy="12" r="1.2" fill="#FFF"/>
    </g>
</svg>
